11 - Data for Statistics – Cytometry in R
…
 [1] "singlets"    "lymphocytes" "Tcells"      "Vd2+"        "Vd2_CD107a" 
 [6] "Vd2_IL2"     "Vd2_TNFa"    "Vd2_IFNg"    "Vd2-"        "CD4+"       
[11] "CD4_CD107a"  "CD4_IL2"     "CD4_TNFa"    "CD4_IFNg"    "CD4-"       
[16] "CD8+"        "CD8_CD107a"  "CD8_IL2"     "CD8_TNFa"    "CD8_IFNg"   
[21] "CD8-"        "DN_CD107a"   "DN_IL2"      "DN_TNFa"     "DN_IFNg"    

Consequently, we only need to determine the starting column that contains measurements to provide as a numeric argument (which is the main reason for using relocate() to move over the metadata columns when we first started with our dataset).

Now that we have our column names, let’s use purrr’s map() function to iterate through, before using dplyr()’s bind_row() to combine the individual rows into a data.frame.

TheseColumns <- colnames(Data)[6:ncol(Data)]
purrr::map(.x=TheseColumns, .f=StatsFromFlow, data=Data, theFactor="infant_sex") |> bind_rows()

# A tibble: 25 × 10
   estimate estimate1 estimate2 statistic  p.value parameter  conf.low conf.high
      <dbl>     <dbl>     <dbl>     <dbl>    <dbl>     <dbl>     <dbl>     <dbl>
 1  0.00307    0.962      0.959     0.933   0.364         17  -0.00387   0.0100 
 2  0.0191     0.769      0.75      1.36    0.191         17  -0.0105    0.0487 
 3  0.0541     0.769      0.715     1.71    0.105         17  -0.0125    0.121  
 4 -0.00318    0.0218     0.025    -0.828   0.419         17  -0.0113    0.00493
 5  0          0          0       NaN     NaN             17 NaN       NaN      
 6  0          0          0       NaN     NaN             17 NaN       NaN      
 7  0          0          0       NaN     NaN             17 NaN       NaN      
 8  0          0          0       NaN     NaN             17 NaN       NaN      
 9  0.0557     0.748      0.692     1.80    0.0892        17  -0.00948   0.121  
10  0.0511     0.514      0.462     1.31    0.208         17  -0.0312    0.134  
# ℹ 15 more rows
# ℹ 2 more variables: method <chr>, alternative <chr>
…
TheseColumns <- colnames(Data)[6:ncol(Data)]
purrr::map(.x=TheseColumns, .f=StatsFromFlow, data=Data, theFactor="infant_sex") |> bind_rows()

# A tibble: 25 × 12
   estimate estimate1 estimate2 statistic  p.value parameter  conf.low conf.high
      <dbl>     <dbl>     <dbl>     <dbl>    <dbl>     <dbl>     <dbl>     <dbl>
 1  0.00307    0.962      0.959     0.933   0.364         17  -0.00387   0.0100 
 2  0.0191     0.769      0.75      1.36    0.191         17  -0.0105    0.0487 
 3  0.0541     0.769      0.715     1.71    0.105         17  -0.0125    0.121  
 4 -0.00318    0.0218     0.025    -0.828   0.419         17  -0.0113    0.00493
 5  0          0          0       NaN     NaN             17 NaN       NaN      
 6  0          0          0       NaN     NaN             17 NaN       NaN      
 7  0          0          0       NaN     NaN             17 NaN       NaN      
 8  0          0          0       NaN     NaN             17 NaN       NaN      
 9  0.0557     0.748      0.692     1.80    0.0892        17  -0.00948   0.121  
10  0.0511     0.514      0.462     1.31    0.208         17  -0.0312    0.134  
# ℹ 15 more rows
# ℹ 4 more variables: method <chr>, alternative <chr>, GateName <chr>,
#   FactorName <chr>
…
     Results <- Results |> mutate(GateName=GateName) |> mutate(FactorName=FactorName)
     return(Results)
}

TheseColumns <- colnames(Data)[6:ncol(Data)]
purrr::map(.x=TheseColumns, .f=StatsFromFlow, data=Data,
 theFactor="infant_sex", parametric="parametric") |> bind_rows()

# A tibble: 25 × 12
   estimate estimate1 estimate2 statistic  p.value parameter  conf.low conf.high
      <dbl>     <dbl>     <dbl>     <dbl>    <dbl>     <dbl>     <dbl>     <dbl>
 1  0.00307    0.962      0.959     0.933   0.364         17  -0.00387   0.0100 
 2  0.0191     0.769      0.75      1.36    0.191         17  -0.0105    0.0487 
 3  0.0541     0.769      0.715     1.71    0.105         17  -0.0125    0.121  
 4 -0.00318    0.0218     0.025    -0.828   0.419         17  -0.0113    0.00493
 5  0          0          0       NaN     NaN             17 NaN       NaN      
 6  0          0          0       NaN     NaN             17 NaN       NaN      
 7  0          0          0       NaN     NaN             17 NaN       NaN      
 8  0          0          0       NaN     NaN             17 NaN       NaN      
 9  0.0557     0.748      0.692     1.80    0.0892        17  -0.00948   0.121  
10  0.0511     0.514      0.462     1.31    0.208         17  -0.0312    0.134  
# ℹ 15 more rows
# ℹ 4 more variables: method <chr>, alternative <chr>, GateName <chr>,
#   FactorName <chr>

TheseColumns <- colnames(Data)[6:ncol(Data)]
purrr::map(.x=TheseColumns, .f=StatsFromFlow, data=Data,
 theFactor="infant_sex", parametric="non-parametric") |> bind_rows()

# A tibble: 25 × 6
   statistic  p.value method                     alternative GateName FactorName
       <dbl>    <dbl> <chr>                      <chr>       <chr>    <chr>     
 1      54.5   0.364  Wilcoxon rank sum test wi… two.sided   singlets infant_sex
 2      60.5   0.184  Wilcoxon rank sum test wi… two.sided   lymphoc… infant_sex
 3      64     0.105  Wilcoxon rank sum test wi… two.sided   Tcells   infant_sex
 4      34     0.401  Wilcoxon rank sum test wi… two.sided   Vd2+     infant_sex
 5      44   NaN      Wilcoxon rank sum test wi… two.sided   Vd2_CD1… infant_sex
 6      44   NaN      Wilcoxon rank sum test wi… two.sided   Vd2_IL2  infant_sex
 7      44   NaN      Wilcoxon rank sum test wi… two.sided   Vd2_TNFa infant_sex
 8      44   NaN      Wilcoxon rank sum test wi… two.sided   Vd2_IFNg infant_sex
 9      67     0.0618 Wilcoxon rank sum test wi… two.sided   Vd2-     infant_sex
10      61.5   0.159  Wilcoxon rank sum test wi… two.sided   CD4+     infant_sex
# ℹ 15 more rows
…
